Homework 2
…
In order to answer this question all we need to do is sort the data. We use the arrange function to do this, and sort it by the unemployment_rate variable. By default arrange sorts in ascending order, which is what we want here  were interested in the major with the lowest unemployment rate.

#college_recent_grads %>%
#  arrange(unemployment_rate) %>% 

This gives us what we wanted, but not in an ideal form. First, the name of the major barely fits on the page. Second, some of the variables are not that useful (e.g. major_code, major_category) and some we might want front and center are not easily viewed (e.g. unemployment_rate).

We can use the select function to choose which variables to display, and in which order:

college_recent_grads %>%
  arrange(unemployment_rate) %>%
  select(rank, major, unemployment_rate)

## # A tibble: 173 x 3
##     rank major                                      unemployment_rate
##    <dbl> <chr>                                                  <dbl>
##  1    53 Mathematics And Computer Science                     0      
##  2    74 Military Technologies                                0      
##  3    84 Botany                                               0      
##  4   113 Soil Science                                         0      
##  5   121 Educational Administration And Supervision           0      
##  6    15 Engineering Mechanics Physics And Science            0.00633
##  7    20 Court Reporting                                      0.0117 
##  8   120 Mathematics Teacher Education                        0.0162 
##  9     1 Petroleum Engineering                                0.0184 
## 10    65 General Agriculture                                  0.0196 
## #  with 163 more rows

Ok, this is looking better, but do we really need all those decimal places in the unemployment variable? Not really!

1a. Round unemployment_rate: We create a new variable with the mutate function. In this case, were overwriting the existing unemployment_rate variable, by rounding it to 4 decimal places. Incomplete code is given below to guide you in the right direction, however you will need to fill in the blanks.

college_recent_grads %>%
  arrange(unemployment_rate) %>%
  select(rank, major, unemployment_rate) %>%
  mutate(unemployment_rate = round(unemployment_rate, 4))

## # A tibble: 173 x 3
##     rank major                                      unemployment_rate
##    <dbl> <chr>                                                  <dbl>
##  1    53 Mathematics And Computer Science                      0     
##  2    74 Military Technologies                                 0     
##  3    84 Botany                                                0     
##  4   113 Soil Science                                          0     
##  5   121 Educational Administration And Supervision            0     
##  6    15 Engineering Mechanics Physics And Science             0.0063
##  7    20 Court Reporting                                       0.0117
##  8   120 Mathematics Teacher Education                         0.0162
##  9     1 Petroleum Engineering                                 0.0184
## 10    65 General Agriculture                                   0.0196
## #  with 163 more rows

Which major has the highest percentage of women?

To answer such a question we need to arrange the data in descending order. For example, if earlier we were interested in the major with the highest unemployment rate, we would use the following:

The desc function specifies that we want unemployment_rate in descending order.

#1.b)
college_recent_grads %>%
  arrange(desc(unemployment_rate)) %>%
  select(rank, major, unemployment_rate)

## # A tibble: 173 x 3
##     rank major                                      unemployment_rate
##    <dbl> <chr>                                                  <dbl>
##  1     6 Nuclear Engineering                                    0.177
##  2    90 Public Administration                                  0.159
##  3    85 Computer Networking And Telecommunications             0.152
##  4   171 Clinical Psychology                                    0.149
##  5    30 Public Policy                                          0.128
##  6   106 Communication Technologies                             0.120
##  7     2 Mining And Mineral Engineering                         0.117
##  8    54 Computer Programming And Data Processing               0.114
##  9    80 Geography                                              0.113
## 10    59 Architecture                                           0.113
## #  with 163 more rows

#The code below will list the majors with the most women in descending porder
college_recent_grads %>%
  arrange(desc(women)) %>%
  select(major,women,men)

## # A tibble: 173 x 3
##    major                                   women    men
##    <chr>                                   <dbl>  <dbl>
##  1 Psychology                             307087  86648
##  2 Nursing                                187621  21773
##  3 Biology                                168947 111762
##  4 Elementary Education                   157833  13029
##  5 Business Management And Administration 156118 173809
##  6 Communications                         143377  70619
##  7 English Language And Literature        136446  58227
##  8 Marketing And Marketing Research       126354  78857
##  9 General Education                      116825  26893
## 10 Accounting                             104114  94519
## #  with 163 more rows
…
2a. Create a new variable called core_avg that is the average scores of the core dimensions of a burrito, except Cost. Add this new variable to the burrito data frame. Do this in one pipe, using the rowwise function. Incomplete code is given below to guide you in the right direction, however you will need to fill in the blanks.

The rowwise function is useful for applying mathematical operations to each row.

Core dimensions of a burrito: 2. Tortilla quality 3. Temperature 4. Meat quality 5. Non-meat filling quality 6. Meat to filling ratio 7. Uniformity 8. Salsa quality 9. Wrap integrity

core_avg <- burrito %>%
  rowwise() %>%
  mutate(core_avg = mean( c(Tortilla, Temp, Meat, Fillings, MeatToFilling, Uniformity,Salsa,Wrap) )) %>%
  ungroup()

print(core_avg)

## # A tibble: 328 x 16
##    Location Burrito Hunger Tortilla  Temp  Meat Fillings MeatToFilling
##    <chr>    <chr>    <dbl>    <dbl> <dbl> <dbl>    <dbl>         <dbl>
##  1 senor g califo    2        2     3.5   3        1.5           1  
##  2 roberto chicke    2        1.5   4     2        2             4.5
##  3 lucha l holy m    3        2.5   2.5   3        2             2  
##  4 lucha l ala ti    3        3     2.5   3.5      3             1  
##  5 senor g pastor     2        2.5   2.5   1.5      2.5           1  
##  6 goody's  custom     3.5      1.5   1     2        2             2  
##  7 jv's me carne     3.5      2.5   1.5   1.5      3             4.5
##  8 tony's  batter    3        3     1     1.5      2.5           4  
##  9 los pri califo    2.5      3     4     3        2             1.5
## 10 los pri baja m    4        3     3     1        4             2  
## #  with 318 more rows, and 8 more variables: Uniformity <dbl>,
## #   Salsa <dbl>, Wrap <dbl>, Cost <dbl>, Reviewer <chr>, Rec <chr>,
## #   overall <dbl>, core_avg <dbl>
…
#You can see by the plot that recommended burritos have higher overall scores. 

2j. What is the equation of the line corresponding to burritos that are recommended ? What is it for non-recommended burritos?

Challenge Create a new variable called CaliBurrito that labels Burrito has string 'california' in it as Yes and all other burrito types as No.

#Challenge 1    
CaliBurrito <- burrito %>%
  mutate(CaliBurrito = ifelse(Burrito=="california","Yes","No"))
print(CaliBurrito)

## # A tibble: 328 x 16
##    Location Burrito Hunger Tortilla  Temp  Meat Fillings MeatToFilling
##    <chr>    <chr>    <dbl>    <dbl> <dbl> <dbl>    <dbl>         <dbl>
##  1 senor g califo    2        2     3.5   3        1.5           1  
##  2 roberto chicke    2        1.5   4     2        2             4.5
##  3 lucha l holy m    3        2.5   2.5   3        2             2  
##  4 lucha l ala ti    3        3     2.5   3.5      3             1  
##  5 senor g pastor     2        2.5   2.5   1.5      2.5           1  
##  6 goody's  custom     3.5      1.5   1     2        2             2  
##  7 jv's me carne     3.5      2.5   1.5   1.5      3             4.5
##  8 tony's  batter    3        3     1     1.5      2.5           4  
##  9 los pri califo    2.5      3     4     3        2             1.5
## 10 los pri baja m    4        3     3     1        4             2  
## #  with 318 more rows, and 8 more variables: Uniformity <dbl>,
## #   Salsa <dbl>, Wrap <dbl>, Cost <dbl>, Reviewer <chr>, Rec <chr>,
## #   overall <dbl>, CaliBurrito <chr>
…
